I,GEN,LogL,order-virtual-A,base-order,disorder-virtual-A,base-disorder,order-virtual-R,disorder-virtual-R,order-virtual-N,disorder-virtual-N,order-virtual-D,disorder-virtual-D,order-virtual-C,disorder-virtual-C,order-virtual-E,disorder-virtual-E,order-virtual-Q,disorder-virtual-Q,order-virtual-G,disorder-virtual-G,order-virtual-H,disorder-virtual-H,order-virtual-I,disorder-virtual-I,order-virtual-L,disorder-virtual-L,order-virtual-K,disorder-virtual-K,order-virtual-M,disorder-virtual-M,order-virtual-F,disorder-virtual-F,order-virtual-P,disorder-virtual-P,order-virtual-S,disorder-virtual-S,order-virtual-T,disorder-virtual-T,order-virtual-W,disorder-virtual-W,order-virtual-Y,disorder-virtual-Y,order-virtual-V,disorder-virtual-V,virtual-O,OD-transition,virtual-D
0,0,-368877.559859,469.993546,9184.000000,197.052078,8246.000000,339.390788,204.176996,136.153910,139.619583,402.402398,305.653442,39.824202,22.252366,525.919640,445.416693,123.023267,171.708128,331.522700,156.534597,66.705085,51.030391,399.563139,121.045350,384.518257,303.012057,290.691924,193.785405,149.377475,140.488597,236.006346,65.005032,213.990057,162.778005,138.878779,193.109913,238.925361,184.568974,28.885528,22.812160,59.407788,73.730104,319.777390,267.818418,4752.300669,13085.000000,3059.028095
1,100,-288033.882811,465.807084,9184.000000,195.459235,8246.000000,336.419374,202.520054,135.073286,138.543429,398.844762,303.083570,39.639770,22.232103,521.212876,441.589446,122.064802,170.343291,328.516215,155.414572,66.270570,50.751227,396.031918,120.136299,381.127004,300.465949,288.173574,192.221950,148.173827,139.404626,233.996757,64.600145,212.185293,161.493508,137.772804,191.552535,236.888615,183.088435,28.802863,22.786861,59.041162,73.246723,316.988446,265.588928,4752.190885,13084.000000,3059.201552
2,200,-263393.506360,317.318314,9188.000000,103.975196,8236.000000,230.791400,107.067933,96.728951,76.560196,272.607380,154.994421,33.095471,21.064995,354.200401,220.250859,88.055111,91.701666,225.713475,84.611770,50.852446,34.672221,270.731822,67.777669,260.793474,153.817701,198.813674,102.171635,105.464174,77.101608,162.689475,41.279906,148.145954,87.510284,98.573502,102.764979,164.494572,97.813793,25.869602,21.329685,46.031997,45.405416,218.026951,137.176955,4620.809571,13084.000000,2974.823238
3,300,-246316.333960,147.908476,9188.000000,50.170534,8236.000000,110.683976,51.281690,52.978288,40.339463,128.673511,68.500676,25.633766,20.382630,163.775415,91.945952,49.277798,45.760911,108.499416,43.213660,33.272944,25.271423,127.866633,37.165519,123.591084,68.077905,96.926928,49.522552,56.767302,40.515415,81.294358,27.700230,75.129311,44.255035,53.802886,49.735729,82.162604,47.956871,22.525145,20.477728,31.199152,29.127635,105.192618,62.099233,4528.969739,13082.000000,2916.645327
4,400,-238704.393529,89.303136,9188.000000,38.606288,8236.000000,69.134226,39.277169,37.868236,32.557801,78.881283,49.910559,23.052477,20.235970,97.900132,64.369353,35.863243,35.886856,67.950592,34.315956,27.191522,23.250907,78.444101,30.586043,76.127531,49.649835,61.680407,38.206675,39.921192,32.651938,53.210397,24.748762,49.870062,34.958176,38.315018,38.338142,53.680828,37.241113,21.368169,20.294617,26.067904,25.629049,66.158908,45.962763,4449.014934,13082.000000,2865.280886
5,500,-235286.140470,89.303136,9188.000000,38.606288,8236.000000,69.134226,39.277169,37.868236,32.557801,78.881283,49.910559,23.052477,20.235970,97.900132,64.369353,35.863243,35.886856,67.950592,34.315956,27.191522,23.250907,78.444101,30.586043,76.127531,49.649835,61.680407,38.206675,39.921192,32.651938,53.210397,24.748762,49.870062,34.958176,38.315018,38.338142,53.680828,37.241113,21.368169,20.294617,26.067904,25.629049,66.158908,45.962763,4449.014934,13082.000000,2865.280886
